<?xml version="1.0"?>
<svg xmlns="http://www.w3.org/2000/svg" xmlns:xlink="http://www.w3.org/1999/xlink" version="1.1" id="Capa_1" x="0px" y="0px" viewBox="0 0 341.333 341.333" style="enable-background:new 0 0 341.333 341.333;" xml:space="preserve" width="512px" height="512px" class=""><g><g>
	<g>
		<g>
			<rect x="128" y="128" width="85.333" height="85.333" data-original="#000000" class="active-path" data-old_color="#000000" fill="#194C80"/>
			<rect x="0" y="0" width="85.333" height="85.333" data-original="#000000" class="active-path" data-old_color="#000000" fill="#194C80"/>
			<rect x="128" y="256" width="85.333" height="85.333" data-original="#000000" class="active-path" data-old_color="#000000" fill="#194C80"/>
			<rect x="0" y="128" width="85.333" height="85.333" data-original="#000000" class="active-path" data-old_color="#000000" fill="#194C80"/>
			<rect x="0" y="256" width="85.333" height="85.333" data-original="#000000" class="active-path" data-old_color="#000000" fill="#194C80"/>
			<rect x="256" y="0" width="85.333" height="85.333" data-original="#000000" class="active-path" data-old_color="#000000" fill="#194C80"/>
			<rect x="128" y="0" width="85.333" height="85.333" data-original="#000000" class="active-path" data-old_color="#000000" fill="#194C80"/>
			<rect x="256" y="128" width="85.333" height="85.333" data-original="#000000" class="active-path" data-old_color="#000000" fill="#194C80"/>
			<rect x="256" y="256" width="85.333" height="85.333" data-original="#000000" class="active-path" data-old_color="#000000" fill="#194C80"/>
		</g>
	</g>
</g></g> </svg>
